^D:\DEVELOPMENTS\PROJECT\CPP\BZMAG_RENEW\BUILD\VC14\X64\DEBUG\MAIN.OBJ|D:\DEVELOPMENTS\PROJECT\CPP\BZMAG_RENEW\BUILD\VC14\X64\DEBUG\MODELERVIEW.OBJ|D:\DEVELOPMENTS\PROJECT\CPP\BZMAG_RENEW\BUILD\VC14\X64\DEBUG\MODELEVIEW_METHOD.OBJ|D:\DEVELOPMENTS\PROJECT\CPP\BZMAG_RENEW\BUILD\VC14\X64\DEBUG\PLATFORM_SPECIFIC.OBJ
D:\DEVELOPMENTS\PROJECT\CPP\BZMAG_RENEW\BUILD\VC14\X64\DEBUG\MAIN.OBJ
C:\WINDOWS\SYSTEM32\TZRES.DLL
D:\DEVELOPMENTS\PROJECT\CPP\BZMAG_RENEW\BUILD\VC14\X64\DEBUG\MODELERVIEW.OBJ
D:\DEVELOPMENTS\PROJECT\CPP\BZMAG_RENEW\BUILD\VC14\X64\DEBUG\MODELEVIEW_METHOD.OBJ
D:\DEVELOPMENTS\PROJECT\CPP\BZMAG_RENEW\BUILD\VC14\X64\DEBUG\PLATFORM_SPECIFIC.OBJ
C:\WINDOWS\GLOBALIZATION\SORTING\SORTDEFAULT.NLS
